\relax 
\providecommand\hyper@newdestlabel[2]{}
\providecommand\HyperFirstAtBeginDocument{\AtBeginDocument}
\HyperFirstAtBeginDocument{\ifx\hyper@anchor\@undefined
\global\let\oldcontentsline\contentsline
\gdef\contentsline#1#2#3#4{\oldcontentsline{#1}{#2}{#3}}
\global\let\oldnewlabel\newlabel
\gdef\newlabel#1#2{\newlabelxx{#1}#2}
\gdef\newlabelxx#1#2#3#4#5#6{\oldnewlabel{#1}{{#2}{#3}}}
\AtEndDocument{\ifx\hyper@anchor\@undefined
\let\contentsline\oldcontentsline
\let\newlabel\oldnewlabel
\fi}
\fi}
\global\let\hyper@last\relax 
\gdef\HyperFirstAtBeginDocument#1{#1}
\providecommand\HyField@AuxAddToFields[1]{}
\providecommand\HyField@AuxAddToCoFields[2]{}
\@writefile{toc}{\contentsline {section}{\numberline {1}Introduction}{1}{section.1}\protected@file@percent }
\@writefile{lof}{\contentsline {figure}{\numberline {1}{\ignorespaces Atlas Detector\relax }}{1}{figure.caption.1}\protected@file@percent }
\providecommand*\caption@xref[2]{\@setref\relax\@undefined{#1}}
\newlabel{fig:atlas}{{1}{1}{Atlas Detector\relax }{figure.caption.1}{}}
\citation{ITKTDR}
\citation{itk_ichep}
\@writefile{toc}{\contentsline {section}{\numberline {2}Upgrades}{2}{section.2}\protected@file@percent }
\@writefile{toc}{\contentsline {subsection}{\numberline {2.1}ITk plans}{2}{subsection.2.1}\protected@file@percent }
\@writefile{lof}{\contentsline {figure}{\numberline {2}{\ignorespaces ITK stirps and pixels layout\relax }}{2}{figure.caption.2}\protected@file@percent }
\newlabel{fig:itk_layout}{{2}{2}{ITK stirps and pixels layout\relax }{figure.caption.2}{}}
\@writefile{lof}{\contentsline {figure}{\numberline {3}{\ignorespaces ITk Strips Barrel Stave\relax }}{3}{figure.caption.3}\protected@file@percent }
\newlabel{fig:stave}{{3}{3}{ITk Strips Barrel Stave\relax }{figure.caption.3}{}}
\@writefile{lof}{\contentsline {figure}{\numberline {4}{\ignorespaces Silicon Strip Module Diagram\relax }}{3}{figure.caption.4}\protected@file@percent }
\newlabel{fig:module}{{4}{3}{Silicon Strip Module Diagram\relax }{figure.caption.4}{}}
\@writefile{toc}{\contentsline {subsection}{\numberline {2.2}DAQ Tests}{3}{subsection.2.2}\protected@file@percent }
\@writefile{lof}{\contentsline {figure}{\numberline {5}{\ignorespaces Threshold scan\relax }}{4}{figure.caption.5}\protected@file@percent }
\newlabel{fig:s_curve}{{5}{4}{Threshold scan\relax }{figure.caption.5}{}}
\@writefile{lof}{\contentsline {figure}{\numberline {6}{\ignorespaces Strobe delay for a single channel\relax }}{5}{figure.caption.6}\protected@file@percent }
\newlabel{fig:strobe}{{6}{5}{Strobe delay for a single channel\relax }{figure.caption.6}{}}
\@writefile{lof}{\contentsline {figure}{\numberline {7}{\ignorespaces Three point gain test for a single channel\relax }}{5}{figure.caption.7}\protected@file@percent }
\newlabel{fig:three_point_gain}{{7}{5}{Three point gain test for a single channel\relax }{figure.caption.7}{}}
\@writefile{lof}{\contentsline {figure}{\numberline {8}{\ignorespaces Input Noise Distribution of Strip module channels\relax }}{6}{figure.caption.8}\protected@file@percent }
\newlabel{fig:noise}{{8}{6}{Input Noise Distribution of Strip module channels\relax }{figure.caption.8}{}}
\@writefile{lof}{\contentsline {figure}{\numberline {9}{\ignorespaces Comparison of Input noise between stave and single module tests\relax }}{6}{figure.caption.9}\protected@file@percent }
\newlabel{fig:output_noise}{{9}{6}{Comparison of Input noise between stave and single module tests\relax }{figure.caption.9}{}}
\@writefile{lof}{\contentsline {figure}{\numberline {10}{\ignorespaces Noise increase in the channels around the dcdc converter\relax }}{7}{figure.caption.10}\protected@file@percent }
\newlabel{fig:dcdc_bump}{{10}{7}{Noise increase in the channels around the dcdc converter\relax }{figure.caption.10}{}}
\@writefile{toc}{\contentsline {subsection}{\numberline {2.3}QC Tests}{7}{subsection.2.3}\protected@file@percent }
\@writefile{lof}{\contentsline {figure}{\numberline {11}{\ignorespaces cold chuck for module testing\relax }}{7}{figure.caption.11}\protected@file@percent }
\newlabel{fig:cold_chuck}{{11}{7}{cold chuck for module testing\relax }{figure.caption.11}{}}
\citation{TIDBump}
\@writefile{lof}{\contentsline {figure}{\numberline {12}{\ignorespaces BNL/Harvard four module cold box\relax }}{8}{figure.caption.12}\protected@file@percent }
\newlabel{fig:cold_box}{{12}{8}{BNL/Harvard four module cold box\relax }{figure.caption.12}{}}
\@writefile{toc}{\contentsline {subsection}{\numberline {2.4}ABCStar Radiation}{8}{subsection.2.4}\protected@file@percent }
\@writefile{lof}{\contentsline {figure}{\numberline {13}{\ignorespaces Outline of Software Framework for QC Tests\relax }}{9}{figure.caption.13}\protected@file@percent }
\newlabel{fig:outline}{{13}{9}{Outline of Software Framework for QC Tests\relax }{figure.caption.13}{}}
\@writefile{lof}{\contentsline {figure}{\numberline {14}{\ignorespaces Sensor recordings from thermal cycle\relax }}{9}{figure.caption.14}\protected@file@percent }
\newlabel{fig:thermal_cycle}{{14}{9}{Sensor recordings from thermal cycle\relax }{figure.caption.14}{}}
\@writefile{lof}{\contentsline {figure}{\numberline {15}{\ignorespaces Digital Leakage current vs. total ionizing dose for ABCStar\relax }}{11}{figure.caption.15}\protected@file@percent }
\newlabel{fig:Leakage_Current}{{15}{11}{Digital Leakage current vs. total ionizing dose for ABCStar\relax }{figure.caption.15}{}}
\@writefile{lof}{\contentsline {figure}{\numberline {16}{\ignorespaces  Results of RAL annealing studies. The bump is the initial TID bump, the other lines show the bump doesn't return\relax }}{12}{figure.caption.16}\protected@file@percent }
\newlabel{fig:anneal}{{16}{12}{Results of RAL annealing studies. The bump is the initial TID bump, the other lines show the bump doesn't return\relax }{figure.caption.16}{}}
\@writefile{lof}{\contentsline {figure}{\numberline {17}{\ignorespaces Leakage current fall for different temperatures\relax }}{12}{figure.caption.17}\protected@file@percent }
\newlabel{fig:Fall_Time}{{17}{12}{Leakage current fall for different temperatures\relax }{figure.caption.17}{}}
\@writefile{lof}{\contentsline {figure}{\numberline {18}{\ignorespaces TID Fall time vs. Temperature\relax }}{13}{figure.caption.18}\protected@file@percent }
\newlabel{fig:TID_vs_temp}{{18}{13}{TID Fall time vs. Temperature\relax }{figure.caption.18}{}}
\@writefile{toc}{\contentsline {section}{\numberline {3}HWW Analysis}{13}{section.3}\protected@file@percent }
\@writefile{toc}{\contentsline {subsection}{\numberline {3.1}Overview}{13}{subsection.3.1}\protected@file@percent }
\citation{HWW}
\@writefile{toc}{\contentsline {subsection}{\numberline {3.2}Motivations}{14}{subsection.3.2}\protected@file@percent }
\@writefile{lof}{\contentsline {figure}{\numberline {19}{\ignorespaces  Feynamn diagrams of Higgs production to WW decay\relax }}{14}{figure.caption.19}\protected@file@percent }
\newlabel{fig:higgs_production}{{19}{14}{Feynamn diagrams of Higgs production to WW decay\relax }{figure.caption.19}{}}
\@writefile{toc}{\contentsline {subsection}{\numberline {3.3}Analysis Strategy}{14}{subsection.3.3}\protected@file@percent }
\@writefile{lot}{\contentsline {table}{\numberline {1}{\ignorespaces Summarized cuts for VBF signal region, $Z+$jets control region, top validation region, and $WW$ validation region\relax }}{16}{table.caption.20}\protected@file@percent }
\newlabel{tab:allcuts}{{1}{16}{Summarized cuts for VBF signal region, $Z+$jets control region, top validation region, and $WW$ validation region\relax }{table.caption.20}{}}
\@writefile{lot}{\contentsline {table}{\numberline {2}{\ignorespaces Summarized cuts for the $W+$jets control region and ggF control regions (1, 2, 3)\relax }}{16}{table.caption.21}\protected@file@percent }
\newlabel{tab:allcuts2}{{2}{16}{Summarized cuts for the $W+$jets control region and ggF control regions (1, 2, 3)\relax }{table.caption.21}{}}
\@writefile{toc}{\contentsline {subsection}{\numberline {3.4}Fiducial Region Definition}{16}{subsection.3.4}\protected@file@percent }
\newlabel{xSectFid}{{5}{16}{Fiducial Region Definition}{equation.3.5}{}}
\@writefile{lot}{\contentsline {table}{\numberline {3}{\ignorespaces Definition of Fiducial Phase Space for VBF $hwwlnln$ in the $e-\mu $ decay channel.\relax }}{17}{table.caption.22}\protected@file@percent }
\newlabel{table:fid_volume}{{3}{17}{Definition of Fiducial Phase Space for VBF $hwwlnln$ in the $e-\mu $ decay channel.\relax }{table.caption.22}{}}
\newlabel{xSectIncl}{{6}{17}{Fiducial Region Definition}{equation.3.6}{}}
\@writefile{lot}{\contentsline {table}{\numberline {4}{\ignorespaces Definition of the Inclusive Phase Space for VBF $H$ production.\relax }}{18}{table.caption.23}\protected@file@percent }
\newlabel{table:incl_volume}{{4}{18}{Definition of the Inclusive Phase Space for VBF $H$ production.\relax }{table.caption.23}{}}
\@writefile{toc}{\contentsline {subsection}{\numberline {3.5}Unfolding Strategy}{18}{subsection.3.5}\protected@file@percent }
\@writefile{toc}{\contentsline {subsubsection}{\numberline {3.5.1}Iterative Bayesian unfolding}{18}{subsubsection.3.5.1}\protected@file@percent }
\newlabel{eq:bayes}{{7}{18}{Iterative Bayesian unfolding}{equation.3.7}{}}
\citation{dagostini}
\@writefile{toc}{\contentsline {subsubsection}{\numberline {3.5.2}Validation tests}{19}{subsubsection.3.5.2}\protected@file@percent }
\@writefile{toc}{\contentsline {subsubsection}{\numberline {3.5.3}Response Matrices}{19}{subsubsection.3.5.3}\protected@file@percent }
\@writefile{toc}{\contentsline {subsubsection}{\numberline {3.5.4}Statistical Uncertainty}{19}{subsubsection.3.5.4}\protected@file@percent }
\@writefile{lof}{\contentsline {figure}{\numberline {20}{\ignorespaces  Validation plots for unfolding. The detector-level spectrum is in green and the truth spectrum in blue. The unfolded spectrum is shown with black markers that overlap with the truth spectrum.\relax }}{20}{figure.caption.24}\protected@file@percent }
\newlabel{fig:unfolding_valid}{{20}{20}{Validation plots for unfolding. The detector-level spectrum is in green and the truth spectrum in blue. The unfolded spectrum is shown with black markers that overlap with the truth spectrum.\relax }{figure.caption.24}{}}
\@writefile{lof}{\contentsline {figure}{\numberline {21}{\ignorespaces Response matrices for kinematic distributions. The bin values corrspond to normalized bayesian probablilites\relax }}{21}{figure.caption.25}\protected@file@percent }
\newlabel{fig:response_matrices}{{21}{21}{Response matrices for kinematic distributions. The bin values corrspond to normalized bayesian probablilites\relax }{figure.caption.25}{}}
\@writefile{lof}{\contentsline {figure}{\numberline {22}{\ignorespaces  Statistical uncertainty propagated through unfolding vs. bayesian Iteration in Higgs Pt\relax }}{22}{figure.caption.26}\protected@file@percent }
\newlabel{fig:all_stats}{{22}{22}{Statistical uncertainty propagated through unfolding vs. bayesian Iteration in Higgs Pt\relax }{figure.caption.26}{}}
\@writefile{toc}{\contentsline {subsubsection}{\numberline {3.5.5}Unfolding Bias and Coverage}{23}{subsubsection.3.5.5}\protected@file@percent }
\@writefile{lof}{\contentsline {figure}{\numberline {23}{\ignorespaces Truth Cross Section vs. Unfolded Cross Section for three Bayesian iterations \relax }}{23}{figure.caption.27}\protected@file@percent }
\newlabel{fig:2dcoverage_plots}{{23}{23}{Truth Cross Section vs. Unfolded Cross Section for three Bayesian iterations \relax }{figure.caption.27}{}}
\@writefile{lof}{\contentsline {figure}{\numberline {24}{\ignorespaces Profile of Systematic Bias vs Variation in Truth Content \relax }}{24}{figure.caption.28}\protected@file@percent }
\newlabel{fig:Higgs_pt_prof}{{24}{24}{Profile of Systematic Bias vs Variation in Truth Content \relax }{figure.caption.28}{}}
\@writefile{toc}{\contentsline {subsubsection}{\numberline {3.5.6}Obsevables Binning}{24}{subsubsection.3.5.6}\protected@file@percent }
\bibcite{TIDBump}{1}
\bibcite{Malte}{2}
\@writefile{lot}{\contentsline {table}{\numberline {5}{\ignorespaces Observable Binnings\relax }}{25}{table.caption.29}\protected@file@percent }
\newlabel{table:binning}{{5}{25}{Observable Binnings\relax }{table.caption.29}{}}
\@writefile{toc}{\contentsline {section}{\numberline {4}Conclusion}{25}{section.4}\protected@file@percent }
\bibcite{Unfold}{3}
\bibcite{ITKTDR}{4}
\bibcite{HWW}{5}
\bibcite{dagostini}{6}
\bibcite{itk_ichep}{7}
